{
  "project_info": {
    "project_number": "997702115040",
    "project_id": "tuldemo",
    "storage_bucket": "tuldemo.appspot.com"
  },
  "client": [
    {
      "client_info": {
        "mobilesdk_app_id": "1:997702115040:android:b6eefe8ede52624924ba85",
        "android_client_info": {
          "package_name": "com.example.tudemo"
        }
      },
      "oauth_client": [
        {
          "client_id": "997702115040-aj2slv0e3u8t7ccq1tajiduna5f0c78l.apps.googleusercontent.com",
          "client_type": 3
        }
      ],
      "api_key": [
        {
          "current_key": "AIzaSyDcjZMyjVGfby7uJnhRK9won1OCTP89Pzo"
        }
      ],
      "services": {
        "appinvite_service": {
          "other_platform_oauth_client": [
            {
              "client_id": "997702115040-aj2slv0e3u8t7ccq1tajiduna5f0c78l.apps.googleusercontent.com",
              "client_type": 3
            }
          ]
        }
      }
    }
  ],
  "configuration_version": "1"
}